Chương 6 Biến đổi dữ liệu bằng thư viện \(dplyr\) | index
…
Dữ liệu \(gapminder\) là dữ liệu đã được sử dụng trong phần tiền xử lý dữ liệu. Bạn đọc lưu ý thực hiện các bước tiền xử lý dữ liệu trước khi chạy các câu lệnh biến đổi dữ liệu. Mỗi phần tiếp theo sẽ giới thiệu một hàm quan trọng của thư viện \(dplyr\) và các tham số của hàm đó. Sau cùng chúng tôi sẽ giới thiệu về cách sử dụng pipe (\(%\>\%\)) để kết nối các hàm với nhau trong một câu lệnh duy nhất.

6.1 Thêm biến bằng hàm \(mutate()\)

Khi bạn đọc muốn thêm các cột khác vào một dữ liệu được tính toán từ các cột hiện có, bạn đọc có thể sử dụng hàm \(mutate()\). Hàm \(mutate()\) luôn thêm cột vào sau cột cuối cùng trong dữ liệu hiện có. Khi bạn muốn thêm cột vào một vị trí cụ thể, bạn có thể sử dụng tùy biến

\(.after = ten\_cot\) trong đó \(ten\_cot\) là tên cột phía trước cột mà bạn đọc muốn thêm vào.

\(.before = ten\_cot\) trong đó \(ten\_cot\) là tên cột phía sau cột mà bạn đọc muốn thêm vào.

mytib<-as.tibble(gapminder) # mytib là dữ liệu kiểu tibble
mutate(mytib, gdp_per_capita = gdp/population) # thêm cột có tên là gdp_per_capita

## # A tibble: 10,545 × 10
##    country  year infan…¹ life_…² ferti…³ popul…⁴      gdp conti…⁵ region gdp_p…⁶
##    <fct>   <int>   <dbl>   <dbl>   <dbl>   <dbl>    <dbl> <fct>   <fct>    <dbl>
##  1 Albania  1960   115.     62.9    6.19  1.64e6 NA       Europe  South…     NA 
##  2 Algeria  1960   148.     47.5    7.65  1.11e7  1.38e10 Africa  North…   1243.
##  3 Angola   1960   208      36.0    7.32  5.27e6 NA       Africa  Middl…     NA 
##  4 Antigu…  1960    NA      63.0    4.43  5.47e4 NA       Americ… Carib…     NA 
##  5 Argent…  1960    59.9    65.4    3.11  2.06e7  1.08e11 Americ… South…   5254.
##  6 Armenia  1960    NA      66.9    4.55  1.87e6 NA       Asia    Weste…     NA 
##  7 Aruba    1960    NA      65.7    4.82  5.42e4 NA       Americ… Carib…     NA 
##  8 Austra…  1960    20.3    70.9    3.45  1.03e7  9.67e10 Oceania Austr…   9393.
##  9 Austria  1960    37.3    68.8    2.7   7.07e6  5.24e10 Europe  Weste…   7415.
## 10 Azerba…  1960    NA      61.3    5.57  3.90e6 NA       Asia    Weste…     NA 
## # … with 10,535 more rows, and abbreviated variable names ¹​infant_mortality,
## #   ²​life_expectancy, ³​fertility, ⁴​population, ⁵​continent, ⁶​gdp_per_capita

Câu lệnh trên thêm cột có tên là \(gdp\_per\_capita\) được tính bằng tổng thu nhập quốc nội (\(gdp\)) chia cho dân số của quốc gia đó. Nếu bạn đọc muốn cột mới được thêm vào ngay sau cột \(gdp\), hãy sử dụng thêm tùy biến \(.after\)

mutate(mytib, gdp_per_capita = gdp/population,.after = gdp) # thêm cột có tên là gdp_per_capita

## # A tibble: 10,545 × 10
##    country  year infan…¹ life_…² ferti…³ popul…⁴      gdp gdp_p…⁵ conti…⁶ region
##    <fct>   <int>   <dbl>   <dbl>   <dbl>   <dbl>    <dbl>   <dbl> <fct>   <fct> 
##  1 Albania  1960   115.     62.9    6.19  1.64e6 NA           NA  Europe  South…
##  2 Algeria  1960   148.     47.5    7.65  1.11e7  1.38e10   1243. Africa  North…
##  3 Angola   1960   208      36.0    7.32  5.27e6 NA           NA  Africa  Middl…
##  4 Antigu…  1960    NA      63.0    4.43  5.47e4 NA           NA  Americ… Carib…
##  5 Argent…  1960    59.9    65.4    3.11  2.06e7  1.08e11   5254. Americ… South…
##  6 Armenia  1960    NA      66.9    4.55  1.87e6 NA           NA  Asia    Weste…
##  7 Aruba    1960    NA      65.7    4.82  5.42e4 NA           NA  Americ… Carib…
##  8 Austra…  1960    20.3    70.9    3.45  1.03e7  9.67e10   9393. Oceania Austr…
##  9 Austria  1960    37.3    68.8    2.7   7.07e6  5.24e10   7415. Europe  Weste…
## 10 Azerba…  1960    NA      61.3    5.57  3.90e6 NA           NA  Asia    Weste…
## # … with 10,535 more rows, and abbreviated variable names ¹​infant_mortality,
## #   ²​life_expectancy, ³​fertility, ⁴​population, ⁵​gdp_per_capita, ⁶​continent

Một biến thể khác của hàm \(mutate()\) là \(transmute()\). Hàm \(transmute()\) khác \(mutate()\) ở chỗ là chỉ giữ lại các cột mới được tạo thành

transmute(mytib, gdp_per_capita = gdp/population) # data mới chỉ có cột gdp_per_capita

## # A tibble: 10,545 × 1
##    gdp_per_capita
##             <dbl>
##  1            NA 
##  2          1243.
##  3            NA 
##  4            NA 
##  5          5254.
##  6            NA 
##  7            NA 
##  8          9393.
##  9          7415.
## 10            NA 
## # … with 10,535 more rows

6.2 Lựa chọn cột bằng hàm \(select()\)

Khi dữ liệu có quá nhiều cột và bạn đọc chỉ muốn sử dụng một số cột nhất định để phân tích, bạn đọc hãy sửa dụng hàm \(select()\). Điều quan trọng nhất khi sử dụng hàm \(select()\) là bạn đọc cần phải gọi tên đúng các cột (biến) mà mình muốn lựa chọn.

select(mytib, year, gdp, population) # lấy ra các cột year, gdp, population

## # A tibble: 10,545 × 3
##     year          gdp population
##    <int>        <dbl>      <dbl>
##  1  1960           NA    1636054
##  2  1960  13828152297   11124892
##  3  1960           NA    5270844
##  4  1960           NA      54681
##  5  1960 108322326649   20619075
##  6  1960           NA    1867396
##  7  1960           NA      54208
##  8  1960  96677859364   10292328
##  9  1960  52392699681    7065525
## 10  1960           NA    3897889
## # … with 10,535 more rows

Hàm \(select\) cũng có thể được sử dụng để thay đổi tên cột. Chẳng hạn bạn đọc muốn tên các cột mới tương ứng là \("Year"\), \("GDP"\) và \("Population"\)

select(mytib, Year = year, Gdp =  gdp,  Population = population) # lấy ra và đổi tên các cột year, gdp, population

## # A tibble: 10,545 × 3
##     Year          Gdp Population
##    <int>        <dbl>      <dbl>
##  1  1960           NA    1636054
##  2  1960  13828152297   11124892
##  3  1960           NA    5270844
##  4  1960           NA      54681
##  5  1960 108322326649   20619075
##  6  1960           NA    1867396
##  7  1960           NA      54208
##  8  1960  96677859364   10292328
##  9  1960  52392699681    7065525
## 10  1960           NA    3897889
## # … with 10,535 more rows

Khi dữ liệu có quá nhiều cột và việc gọi tên chính xác các cột làm cho câu lệnh \(select()\) quá dài, bạn đọc có thể lựa chọn các cột đứng liền nhau bằng cách sau

select(mytib, year, gdp:population) # 

## # A tibble: 10,545 × 3
##     year          gdp population
##    <int>        <dbl>      <dbl>
##  1  1960           NA    1636054
##  2  1960  13828152297   11124892
##  3  1960           NA    5270844
##  4  1960           NA      54681
##  5  1960 108322326649   20619075
##  6  1960           NA    1867396
##  7  1960           NA      54208
##  8  1960  96677859364   10292328
##  9  1960  52392699681    7065525
## 10  1960           NA    3897889
## # … with 10,535 more rows
…
Bạn đọc không nhớ chính xác tên cột muốn lấy ra thì có thể sử dụng các tùy chọn sau:

\(starts\_with()\): lấy ra các cột có tên bắt đầu bằng một chuỗi ký tự nào đó.

\(ends\_with()\): lấy ra các cột có tên kết thúc bằng một chuỗi ký tự nào đó.

\(contains()\): lấy ra các cột có tên chứa một chuỗi ký tự nào đó.

\(matches()\): lấy ra các cột có tên khớp với một xxxxxxxxxxxxxxxxxxx nào đó

mytib1<-mutate(mytib, gdp_per_capita = gdp/population) # mytib1 là tibble có thêm cột tên là gdp_per_capita
select(mytib1, contains("gdp")) # lấy ra tất cả các cột có tên chứa "gdp"

## # A tibble: 10,545 × 2
##             gdp gdp_per_capita
##           <dbl>          <dbl>
##  1           NA            NA 
##  2  13828152297          1243.
##  3           NA            NA 
##  4           NA            NA 
##  5 108322326649          5254.
##  6           NA            NA 
##  7           NA            NA 
##  8  96677859364          9393.
##  9  52392699681          7415.
## 10           NA            NA 
## # … with 10,535 more rows

Hàm \(select()\) ngoài ý nghĩa là lựa chọn cột còn có ý nghĩa là loại bỏ một số cột nào đó khỏi dữ liệu hiện thời. Để loại bỏ cột, bạn đọc chỉ cần thêm dấu “-” vào trước tên cột.

select(mytib1, - starts_with("gdp")) # bỏ đi tất cả các cột có tên chứa "gdp"

## # A tibble: 10,545 × 8
##    country              year infant_mor…¹ life_…² ferti…³ popul…⁴ conti…⁵ region
##    <fct>               <int>        <dbl>   <dbl>   <dbl>   <dbl> <fct>   <fct> 
##  1 Albania              1960        115.     62.9    6.19  1.64e6 Europe  South…
##  2 Algeria              1960        148.     47.5    7.65  1.11e7 Africa  North…
##  3 Angola               1960        208      36.0    7.32  5.27e6 Africa  Middl…
##  4 Antigua and Barbuda  1960         NA      63.0    4.43  5.47e4 Americ… Carib…
##  5 Argentina            1960         59.9    65.4    3.11  2.06e7 Americ… South…
##  6 Armenia              1960         NA      66.9    4.55  1.87e6 Asia    Weste…
##  7 Aruba                1960         NA      65.7    4.82  5.42e4 Americ… Carib…
##  8 Australia            1960         20.3    70.9    3.45  1.03e7 Oceania Austr…
##  9 Austria              1960         37.3    68.8    2.7   7.07e6 Europe  Weste…
## 10 Azerbaijan           1960         NA      61.3    5.57  3.90e6 Asia    Weste…
## # … with 10,535 more rows, and abbreviated variable names ¹​infant_mortality,
## #   ²​life_expectancy, ³​fertility, ⁴​population, ⁵​continent

6.3 Lọc quan sát bằng hàm filter()

Hàm filter() cho phép bạn đọc lọc các quan sát dựa trên giá trị của các cột. Do có một số thư viện trong R sử dụng hàm \(filter()\) với mục đích khác nhau và chúng tôi không chắc chắn cửa sổ R bạn đọc đang sử dụng đang có sẵn các thư viện nào nên chúng tôi đổi tên cho hàm \(filter()\) của thư viện \(dplyr\) thành \(dfilter()\) phương pháp mượn tham số:

dfilter<-function(...) dplyr::filter(...)

Cách hoạt động của hàm \(filter()\) như sau: bạn đọc muốn lấy dữ liệu của năm 2010 từ dữ liệu \(gapminder\), chúng ta sử dụng hàm \(filter()\) như sau

dfilter(mytib, year == 2010) # chỉ lấy các quan sát có year là 2010

## # A tibble: 185 × 9
##    country          year infan…¹ life_…² ferti…³ popul…⁴      gdp conti…⁵ region
##    <fct>           <int>   <dbl>   <dbl>   <dbl>   <dbl>    <dbl> <fct>   <fct> 
##  1 Albania          2010    14.8    77.2    1.74  2.90e6  6.14e 9 Europe  South…
##  2 Algeria          2010    23.5    76      2.82  3.60e7  7.92e10 Africa  North…
##  3 Angola           2010   110.     57.6    6.22  2.12e7  2.61e10 Africa  Middl…
##  4 Antigua and Ba…  2010     7.7    75.8    2.13  8.72e4  8.37e 8 Americ… Carib…
##  5 Argentina        2010    13      75.8    2.22  4.12e7  4.34e11 Americ… South…
##  6 Armenia          2010    16.1    73      1.55  2.96e6  4.10e 9 Asia    Weste…
##  7 Aruba            2010    NA      75.1    1.7   1.02e5 NA       Americ… Carib…
##  8 Australia        2010     4.1    82      1.89  2.22e7  5.63e11 Oceania Austr…
##  9 Austria          2010     3.6    80.5    1.44  8.39e6  2.24e11 Europe  Weste…
## 10 Azerbaijan       2010    33.9    70.1    1.97  9.10e6  2.12e10 Asia    Weste…
## # … with 175 more rows, and abbreviated variable names ¹​infant_mortality,
## #   ²​life_expectancy, ³​fertility, ⁴​population, ⁵​continent

Sau khi chạy câu lệnh trên, R sẽ tạo thành một \(tibble()\) mới chỉ bao gồm các quan sát có giá trị cột \(year\) là 2010. Lưu ý rằng nếu bạn đọc muốn lưu lại giá trị sau mỗi lần thực hiện tính toán hãy gán giá trị trả lại vào một đối tượng mới. \(filter()\) có thể được thực hiện khi sử dụng nhiều cột, chẳng hạn như bạn đọc muốn lọc các quan sát của năm 2010 của các quốc gia Châu Âu

dfilter(mytib, year == 2010, continent == "Europe") 

## # A tibble: 39 × 9
##    country           year infan…¹ life_…² ferti…³ popul…⁴     gdp conti…⁵ region
##    <fct>            <int>   <dbl>   <dbl>   <dbl>   <dbl>   <dbl> <fct>   <fct> 
##  1 Albania           2010    14.8    77.2    1.74  2.90e6 6.14e 9 Europe  South…
##  2 Austria           2010     3.6    80.5    1.44  8.39e6 2.24e11 Europe  Weste…
##  3 Belarus           2010     4.7    70.2    1.46  9.49e6 2.60e10 Europe  Easte…
##  4 Belgium           2010     3.6    80.1    1.84  1.09e7 2.67e11 Europe  Weste…
##  5 Bosnia and Herz…  2010     6.4    77.9    1.24  3.84e6 8.21e 9 Europe  South…
##  6 Bulgaria          2010    11.2    73.7    1.49  7.41e6 1.92e10 Europe  Easte…
##  7 Croatia           2010     4.6    76.7    1.47  4.32e6 2.80e10 Europe  South…
##  8 Czech Republic    2010     3.4    77.5    1.5   1.05e7 8.21e10 Europe  Easte…
##  9 Denmark           2010     3.3    79.4    1.88  5.55e6 1.69e11 Europe  North…
## 10 Estonia           2010     3.6    76.4    1.63  1.33e6 8.01e 9 Europe  North…
## # … with 29 more rows, and abbreviated variable names ¹​infant_mortality,
## #   ²​life_expectancy, ³​fertility, ⁴​population, ⁵​continent

6.4 Sắp xếp dữ liệu bằng hàm arrange()

Hàm arrange() sắp xếp các hàng của dữ liệu theo thứ tự tăng dần. Nguyên tắc sắp xếp cũng tương tự như hàm sort() khi làm trên véc-tơ, nghĩa là hàm bạn đọc có thể sắp xếp dữ liệu dựa theo bất kỳ kiểu dữ liệu nào. Chẳng hạn như để sắp xếp dữ liệu \(gapminder\) theo thứ tự tăng dần theo năm, theo Châu lục, và sau cùng là theo vùng, bạn đọc sử dụng câu lệnh như sau

arrange(mytib, year, continent, region) 

## # A tibble: 10,545 × 9
##    country     year infant_mort…¹ life_…² ferti…³ popul…⁴     gdp conti…⁵ region
##    <fct>      <int>         <dbl>   <dbl>   <dbl>   <dbl>   <dbl> <fct>   <fct> 
##  1 Burundi     1960         145.     40.6    6.95  2.79e6  3.41e8 Africa  Easte…
##  2 Comoros     1960         200      44.0    6.79  1.89e5 NA      Africa  Easte…
##  3 Djibouti    1960          NA      45.8    6.46  8.36e4 NA      Africa  Easte…
##  4 Eritrea     1960          NA      39.0    6.9   1.41e6 NA      Africa  Easte…
##  5 Ethiopia    1960         162      37.7    6.88  2.22e7 NA      Africa  Easte…
##  6 Kenya       1960         119.     47.4    7.95  8.11e6  2.12e9 Africa  Easte…
##  7 Madagascar  1960         112      42.0    7.3   5.10e6  2.09e9 Africa  Easte…
##  8 Malawi      1960         218.     38.5    6.91  3.62e6  3.48e8 Africa  Easte…
##  9 Mauritius   1960          67.8    58.7    6.17  6.60e5 NA      Africa  Easte…
## 10 Mozambique  1960         183      38.2    6.6   7.49e6 NA      Africa  Easte…
## # … with 10,535 more rows, and abbreviated variable names ¹​infant_mortality,
## #   ²​life_expectancy, ³​fertility, ⁴​population, ⁵​continent

Nếu muốn sắp xếp dữ liệu theo thứ tự giảm dần, nếu cột dữ liệu là kiểu số, bạn đọc chỉ cần thêm dấu “-” trước tên biến. Trong trường hợp cột dữ liệu kiểu bất kỳ, bạn đọc sử dụng hàm \(desc()\)

arrange(mytib, year, desc(continent), desc(region), -gdp) # tăng dần theo năm, giảm dần theo continent, region, gdp

## # A tibble: 10,545 × 9
##    country           year infan…¹ life_…² ferti…³ popul…⁴     gdp conti…⁵ region
##    <fct>            <int>   <dbl>   <dbl>   <dbl>   <dbl>   <dbl> <fct>   <fct> 
##  1 French Polynesia  1960     NA     56.3    5.66   78083 NA      Oceania Polyn…
##  2 Samoa             1960     92     51.4    7.65  108645 NA      Oceania Polyn…
##  3 Tonga             1960     NA     61.2    7.36   61600 NA      Oceania Polyn…
##  4 Kiribati          1960     NA     45.8    6.95   41234 NA      Oceania Micro…
##  5 Micronesia, Fed…  1960     NA     56.8    6.93   44539 NA      Oceania Micro…
##  6 Papua New Guinea  1960    135.    38.6    6.28 1966957  8.37e8 Oceania Melan…
##  7 Fiji              1960     54     55.7    6.46  393383  4.37e8 Oceania Melan…
##  8 New Caledonia     1960     NA     56.4    5.22   78058 NA      Oceania Melan…
##  9 Solomon Islands   1960    132.    50.6    6.39  117869 NA      Oceania Melan…
## 10 Vanuatu           1960    107.    46.0    7.2    63701 NA      Oceania Melan…
## # … with 10,535 more rows, and abbreviated variable names ¹​infant_mortality,
## #   ²​life_expectancy, ³​fertility, ⁴​population, ⁵​continent
…
Hàm \(group\_by()\) là một công cụ hữu hiệu trong tổng hợp dữ liệu và tính toán theo nhóm. Chẳng hạn như từ dữ liệu \(gapminder\) bạn đọc muốn biết tổng thu nhập quốc dân (\(gdp\)) của một quốc gia là cao hay thấp so với tổng thu nhập quốc dân trung bình của châu lục (\(continent\)) trong năm tương ứng (\(year\)), bạn đọc cần phải thực hiện các thao tác sau:
- Bước 1: Nhóm dữ liệu lại theo châu lục và theo năm
- Bước 2: Tính tổng thu nhập quốc dân của châu lục trong năm đó, bỏ qua các nước không có quan sát
- Bước 3: Đếm xem có bao nhiêu giá trị có quan sát
- Bước 4: Lấy kết quả ở bước 2 chia cho kết quả của bước 3.
- Bước 5: So sánh gdp của quốc gia với gdp trung bình của châu lục trong năm đó

Những bước như trên có thể được thực hiện một cách đơn giản thông qua hàm \(group\_by\) như sau

mytib%>%group_by(continent, year) %>%
  mutate(gdp_year_continent = mean(gdp,na.rm=TRUE))%>% # thêm cột gdp bình quân của châu lục theo năm
  ungroup()%>% # để dữ liệu trở lại trạng thái ban đầu (trước khi group)
  mutate(gdp_level = ifelse(gdp > gdp_year_continent, "High", "Low"))

## # A tibble: 10,545 × 11
##    country  year infan…¹ life_…² ferti…³ popul…⁴      gdp conti…⁵ region gdp_y…⁶
##    <fct>   <int>   <dbl>   <dbl>   <dbl>   <dbl>    <dbl> <fct>   <fct>    <dbl>
##  1 Albania  1960   115.     62.9    6.19  1.64e6 NA       Europe  South… 1.11e11
##  2 Algeria  1960   148.     47.5    7.65  1.11e7  1.38e10 Africa  North… 3.65e 9
##  3 Angola   1960   208      36.0    7.32  5.27e6 NA       Africa  Middl… 3.65e 9
##  4 Antigu…  1960    NA      63.0    4.43  5.47e4 NA       Americ… Carib… 1.15e11
##  5 Argent…  1960    59.9    65.4    3.11  2.06e7  1.08e11 Americ… South… 1.15e11
##  6 Armenia  1960    NA      66.9    4.55  1.87e6 NA       Asia    Weste… 6.12e10
##  7 Aruba    1960    NA      65.7    4.82  5.42e4 NA       Americ… Carib… 1.15e11
##  8 Austra…  1960    20.3    70.9    3.45  1.03e7  9.67e10 Oceania Austr… 3.27e10
##  9 Austria  1960    37.3    68.8    2.7   7.07e6  5.24e10 Europe  Weste… 1.11e11
## 10 Azerba…  1960    NA      61.3    5.57  3.90e6 NA       Asia    Weste… 6.12e10
## # … with 10,535 more rows, 1 more variable: gdp_level <chr>, and abbreviated
## #   variable names ¹​infant_mortality, ²​life_expectancy, ³​fertility,
## #   ⁴​population, ⁵​continent, ⁶​gdp_year_continent

Nếu đoạn câu lệnh trên không sử dụng câu lệnh \(group\_by\), hàm \(mean()\) trong câu lệnh \(mutate()\) sẽ thực hiên tính toán cho toàn bộ véc-tơ \(gdp\) của dữ liệu \(gapminder\). Nghĩa là cột mới được hình thành sẽ có giá trị giống nhau với tất cả các quan sát. Sau khi sử dụng hàm \(group\_by()\), mỗi khi chúng ta sử dụng một hàm tính toán trên một cột dữ liệu khác, cột dữ liệu đó sẽ được tính toán cho từng nhóm được định nghĩa bởi hàm \(group\_by\). Trong đoạn lệnh ở trên, hàm \(mean()\) sẽ tính giá trị trung bình của véc-tơ \(gdp\) cho từng châu lục theo từng năm. Thật vậy, chúng ta có thể kiểm tra giá trị ở hàng đầu tiên của cột \(gdp\_year\_continent\) (tương ứng với Albania - năm 1960 - châu Âu) sẽ là giá trị trung bình của véc-tơ \(gdp\) của các nước châu Âu trong năm 1960:

mytib%>%dfilter(year == 1960, continent == "Europe")%>%
  select(gdp)%>%mean()

## [1] NA

Hàm \(group\_by()\) kết hợp với \(summarise()\) sẽ tạo thành một dữ liệu mới mà mỗi hàng sẽ tương đương với một nhóm được quy định bởi hàm \(group\_by()\).

mytib%>%group_by(continent, year) %>%
  summarise(gdp_year_continent = mean(gdp,na.rm=TRUE))

## # A tibble: 285 × 3
## # Groups:   continent [5]
##    continent  year gdp_year_continent
##    <fct>     <int>              <dbl>
##  1 Africa     1960        3652247577.
##  2 Africa     1961        3642863976.
##  3 Africa     1962        3781167783.
##  4 Africa     1963        4107185952.
##  5 Africa     1964        4342684293.
##  6 Africa     1965        4618242478.
##  7 Africa     1966        4562215808.
##  8 Africa     1967        4592913225.
##  9 Africa     1968        4814235499.
## 10 Africa     1969        5157970620.
## # … with 275 more rows
…
