Chương 5 Tiền xử lý dữ liệu | index
…
##  [1]  TRUE  TRUE  TRUE FALSE    NA    NA    NA FALSE FALSE FALSE FALSE  TRUE
## [13]  TRUE  TRUE FALSE
## attr(,"problems")
## # A tibble: 1 × 4
##     row   col expected           actual
##   <int> <int> <chr>              <chr> 
## 1     5    NA 1/0/T/F/TRUE/FALSE 2

Bạn đọc có thể thấy rằng tất cả các giá trị nằm trong véc-tơ \(x\) ở trên, ngoại trừ hai ký tự đặc biệt đã được khai báo trong hàm parse_logical() là \("."\) và \("@"\), thì chỉ có số 2 là không thể đổi sang biến kiểu logic. parse_logical() tự động đổi ký tự \("1"\) thành \(TRUE\) và ký tự \("0"\) thành \(FALSE\). Trong trường hợp véc-tơ \(x\) có kích thước lớn, các phần tử không thể đổi sang kiểu logic sẽ được lưu vào một \(tibble\). Bạn đọc sử dụng hàm problems() để lấy các các giá trị này.

x1<-sample(x, 10^4, replace = TRUE)
y<-parse_logical(x1)
problems(y)

## # A tibble: 1,915 × 4
##      row   col expected           actual
##    <int> <int> <chr>              <chr> 
##  1     3    NA 1/0/T/F/TRUE/FALSE 2     
##  2    13    NA 1/0/T/F/TRUE/FALSE 2     
##  3    21    NA 1/0/T/F/TRUE/FALSE .     
##  4    28    NA 1/0/T/F/TRUE/FALSE @     
##  5    32    NA 1/0/T/F/TRUE/FALSE @     
##  6    33    NA 1/0/T/F/TRUE/FALSE 2     
##  7    34    NA 1/0/T/F/TRUE/FALSE .     
##  8    39    NA 1/0/T/F/TRUE/FALSE .     
##  9    47    NA 1/0/T/F/TRUE/FALSE 2     
## 10    55    NA 1/0/T/F/TRUE/FALSE .     
## # … with 1,905 more rows
…
