Chương 1 Tính toán phí bảo hiểm bằng mô hình tuyến tính tổng quát. | bookdown-demo.knit
…
1.1 Dữ liệu để xây dựng mô hình

Tập dữ liệu mô hình “modeling-dataset.csv” được sử dụng để là dữ liệu lịch sử các chuyên gia tính toán xây dựng mô hình tuyến tính tổng quát. Bộ dữ liệu bao gồm thông tin về các hợp đồng bảo hiểm ô tô chở khách thương mại và thông tin về yêu cầu bồi thường. Dữ liệu được quan sát trong các năm từ 2010 đến 2013. Có tổng cộng 40.760 hàng và 24 biến.

dat<-read_csv("C:/Users/AD/Desktop/Tex file/Thu latex/Book demo/bookdown_demo_hieu/Dataset/pricing-modeling-dataset.csv")
dat

## # A tibble: 40,760 × 24
##    pol.id    year exposure nb.rb driver.age driver.gender marital.status
##    <chr>    <dbl>    <dbl> <chr>      <dbl> <chr>         <chr>         
##  1 POL0001   2010   1      RB            63 Male          Married       
##  2 POL0002   2010   1      NB            33 Male          Married       
##  3 POL0003   2010   1      RB            68 Male          Married       
##  4 POL0004   2010   0.0833 RB            68 Male          Married       
##  5 POL0005   2010   1      RB            68 Male          Married       
##  6 POL0006   2010   0.0833 RB            68 Male          Married       
##  7 POL0007   2011   1      RB            53 Male          Married       
##  8 POL0008   2010   1      RB            68 Male          Married       
##  9 POL0009   2011   0.0833 RB            68 Male          Married       
## 10 POL00010  2010   1      RB            65 Male          Married       
## # ℹ 40,750 more rows
## # ℹ 17 more variables: yrs.licensed <dbl>, ncd.level <dbl>, region <dbl>,
## #   body.code <chr>, vehicle.age <dbl>, vehicle.value <dbl>, seats <dbl>,
## #   ccm <dbl>, hp <dbl>, weight <dbl>, length <dbl>, width <dbl>, height <dbl>,
## #   fuel.type <chr>, prior.claims <dbl>, clm.count <dbl>, clm.incurred <dbl>
…
